{
    "ContactNetwork": "NetworkX",
    "ContactNetworkGenerator": "ErdosRenyi",
    "Driver": "Default",
    "EndCriteria": "GEMF",
    "Logging": "File",
    "NodeAvailability": "Perfect",
    "NodeEvolution": "VirusTreeSimulator",
    "NumBranchSample": "Single",
    "NumTimeSample": "Once",
    "PostValidation": "Dummy",
    "SeedSelection": "Random",
    "SeedSequence": "VirusNonHomYuleHeightGTRGamma",
    "SequenceEvolution": "GTRGammaSeqGen",
    "Sequencing": "Perfect",
    "SourceSample": "Random",
    "TimeSample": "End",
    "TransmissionNodeSample": "GEMF",
    "TransmissionTimeSample": "HIVARTGranichGEMF",
    "TreeNode": "Simple",
    "TreeUnit": "TruncatedNormal",
    "d_or_u": "u",
    "end_time": 10,
    "er_prob": 4.000040000400004e-05,
    "gemf_path": "GEMF",
    "grinder_path": "grinder",
    "hiv_a1_to_a2": 4.333333333333333,
    "hiv_a1_to_d": 0,
    "hiv_a1_to_i1": 0.48,
    "hiv_a2_to_a3": 0,
    "hiv_a2_to_d": 0,
    "hiv_a2_to_i2": 0.48,
    "hiv_a3_to_a4": 0,
    "hiv_a3_to_d": 0,
    "hiv_a3_to_i3": 0,
    "hiv_a4_to_d": 0,
    "hiv_a4_to_i4": 0,
    "hiv_freq_a1": 0,
    "hiv_freq_a2": 0,
    "hiv_freq_a3": 0,
    "hiv_freq_a4": 0,
    "hiv_freq_d": 0,
    "hiv_freq_i1": 15000,
    "hiv_freq_i2": 0,
    "hiv_freq_i3": 0,
    "hiv_freq_i4": 0,
    "hiv_freq_ns": 0,
    "hiv_freq_s": 100000-15000,
    "hiv_i1_to_a1": 0.5,
    "hiv_i1_to_d": 0,
    "hiv_i1_to_i2": 8.666666666666666,
    "hiv_i2_to_a2": 0.5,
    "hiv_i2_to_d": 0,
    "hiv_i2_to_i3": 0,
    "hiv_i3_to_a3": 0,
    "hiv_i3_to_d": 0,
    "hiv_i3_to_i4": 0,
    "hiv_i4_to_a4": 0,
    "hiv_i4_to_d": 0,
    "hiv_ns_to_d": 0,
    "hiv_ns_to_s": 999999,
    "hiv_s_to_d": 0,
    "hiv_s_to_i1_by_a1": 0.005625,
    "hiv_s_to_i1_by_a2": 0,
    "hiv_s_to_i1_by_a3": 0,
    "hiv_s_to_i1_by_a4": 0,
    "hiv_s_to_i1_by_i1": 0.1125,
    "hiv_s_to_i1_by_i2": 0.0225,
    "hiv_s_to_i1_by_i3": 0,
    "hiv_s_to_i1_by_i4": 0,
    "hiv_s_to_i1_seed": 0,
    "hmmemit_path": "hmmemit",
    "java_path": "java",
    "num_cn_nodes": 100000,
    "num_seeds": 15000,
    "nw_rename_path": "nw_rename",
    "out_dir": "FAVITES_output_r0",
    "seed_height": 25,
    "seed_speciation_rate_func": "exp(-t**2)+1",
    "seqgen_a_to_c": 1.81180,
    "seqgen_a_to_g": 9.93411,
    "seqgen_a_to_t": 0.71840,
    "seqgen_c_to_g": 0.97148,
    "seqgen_c_to_t": 9.93411,
    "seqgen_freq_a": 0.392,
    "seqgen_freq_c": 0.164,
    "seqgen_freq_g": 0.212,
    "seqgen_freq_t": 0.232,
    "seqgen_g_to_t": 1.0,
    "seqgen_gamma_shape": 0.405129,
    "seqgen_num_gamma_rate_categories": "",
    "seqgen_path": "seq-gen",
    "tree_rate_loc": 0.0008,
    "tree_rate_max": float('inf'),
    "tree_rate_min": 0,
    "tree_rate_scale": 0.0005,
    "viral_sequence_type": "HIV1-B-DNA-POL-LITTLE",
    "vts_growthRate": 2.851904,
    "vts_max_attempts": 100,
    "vts_model": "logistic",
    "vts_n0": 1,
    "vts_t50": -2
}
